2020-01-04 14:07:49.806 [INF] [ECommon.Socketing.ServerSocket] - Socket server is starting, name: CommandResultProcessor.RemotingServer, listening on listeningEndPoint: 192.168.1.67:9000.
2020-01-04 14:07:49.900 [INF] [ECommon.Socketing.ClientSocket] - Client socket connected, name: CommandService, remotingServerEndPoint: 192.168.1.67:9493, localEndPoint: 192.168.1.67:51039
2020-01-04 14:07:50.189 [INF] [ECommon.Socketing.ClientSocket] - Client socket connected, name: CommandService, remotingServerEndPoint: 192.168.1.67:7000, localEndPoint: 192.168.1.67:51040
2020-01-04 14:07:50.190 [INF] [ECommon.Socketing.ClientSocket] - Client socket connected, name: CommandService, remotingServerEndPoint: 192.168.1.67:7002, localEndPoint: 192.168.1.67:51041
2020-01-04 14:07:50.190 [INF] [EQueue.Clients.ClientService] - Added broker: [BrokerName=Broker2,GroupName=BrokerGroup2,ClusterName=DefaultCluster,BrokerRole=0,ProducerAddress=192.168.1.67:7000,ConsumerAddress=192.168.1.67:7001,AdminAddress=192.168.1.67:7002]
2020-01-04 14:07:50.195 [INF] [EQueue.Clients.ClientService] - ClientService startted.
2020-01-04 14:07:50.195 [INF] [EQueue.Clients.Producers.Producer] - Producer startted.
2020-01-04 14:24:33.874 [INF] [ECommon.Socketing.ServerSocket] - Socket server is starting, name: CommandResultProcessor.RemotingServer, listening on listeningEndPoint: 192.168.1.67:9000.
2020-01-04 14:24:33.976 [INF] [ECommon.Socketing.ClientSocket] - Client socket connected, name: CommandService, remotingServerEndPoint: 192.168.1.67:9493, localEndPoint: 192.168.1.67:51202
2020-01-04 14:24:34.202 [INF] [ECommon.Socketing.ClientSocket] - Client socket connected, name: CommandService, remotingServerEndPoint: 192.168.1.67:7000, localEndPoint: 192.168.1.67:51203
2020-01-04 14:24:34.206 [INF] [ECommon.Socketing.ClientSocket] - Client socket connected, name: CommandService, remotingServerEndPoint: 192.168.1.67:7002, localEndPoint: 192.168.1.67:51204
2020-01-04 14:24:34.206 [INF] [EQueue.Clients.ClientService] - Added broker: [BrokerName=Broker2,GroupName=BrokerGroup2,ClusterName=DefaultCluster,BrokerRole=0,ProducerAddress=192.168.1.67:7000,ConsumerAddress=192.168.1.67:7001,AdminAddress=192.168.1.67:7002]
2020-01-04 14:24:34.210 [INF] [EQueue.Clients.ClientService] - ClientService startted.
2020-01-04 14:24:34.210 [INF] [EQueue.Clients.Producers.Producer] - Producer startted.
2020-01-04 14:34:04.376 [INF] [ECommon.Socketing.ServerSocket] - Socket server is starting, name: CommandResultProcessor.RemotingServer, listening on listeningEndPoint: 192.168.1.67:9000.
2020-01-04 14:34:04.467 [INF] [ECommon.Socketing.ClientSocket] - Client socket connected, name: CommandService, remotingServerEndPoint: 192.168.1.67:9493, localEndPoint: 192.168.1.67:51320
2020-01-04 14:34:04.750 [INF] [ECommon.Socketing.ClientSocket] - Client socket connected, name: CommandService, remotingServerEndPoint: 192.168.1.67:7000, localEndPoint: 192.168.1.67:51321
2020-01-04 14:34:04.754 [INF] [ECommon.Socketing.ClientSocket] - Client socket connected, name: CommandService, remotingServerEndPoint: 192.168.1.67:7002, localEndPoint: 192.168.1.67:51322
2020-01-04 14:34:04.755 [INF] [EQueue.Clients.ClientService] - Added broker: [BrokerName=Broker2,GroupName=BrokerGroup2,ClusterName=DefaultCluster,BrokerRole=0,ProducerAddress=192.168.1.67:7000,ConsumerAddress=192.168.1.67:7001,AdminAddress=192.168.1.67:7002]
2020-01-04 14:34:04.759 [INF] [EQueue.Clients.ClientService] - ClientService startted.
2020-01-04 14:34:04.759 [INF] [EQueue.Clients.Producers.Producer] - Producer startted.
2020-01-04 14:37:27.000 [INF] [ECommon.Socketing.ServerSocket] - Socket server new client accepted, name: CommandResultProcessor.RemotingServer, listeningEndPoint: 192.168.1.67:9000, remoteEndPoint: 192.168.1.67:51339
2020-01-04 14:40:33.297 [INF] [ECommon.Socketing.TcpConnection] - TCP connection closed, name: CommandResultProcessor.RemotingServer, remoteEndPoint: 192.168.1.67:51339, socketError: "ConnectionReset", reason: Socket receive error, ex: null
2020-01-04 14:40:39.336 [INF] [ECommon.Socketing.TcpConnection] - TCP connection closed, name: CommandService, remoteEndPoint: 192.168.1.67:9493, socketError: "ConnectionReset", reason: Socket receive error, ex: null
2020-01-04 14:57:16.984 [INF] [ECommon.Socketing.ServerSocket] - Socket server is starting, name: CommandResultProcessor.RemotingServer, listening on listeningEndPoint: 192.168.1.67:9000.
2020-01-04 14:57:17.077 [INF] [ECommon.Socketing.ClientSocket] - Client socket connected, name: CommandService, remotingServerEndPoint: 192.168.1.67:9493, localEndPoint: 192.168.1.67:51479
2020-01-04 14:57:17.341 [INF] [ECommon.Socketing.ClientSocket] - Client socket connected, name: CommandService, remotingServerEndPoint: 192.168.1.67:7000, localEndPoint: 192.168.1.67:51481
2020-01-04 14:57:17.345 [INF] [ECommon.Socketing.ClientSocket] - Client socket connected, name: CommandService, remotingServerEndPoint: 192.168.1.67:7002, localEndPoint: 192.168.1.67:51482
2020-01-04 14:57:17.346 [INF] [EQueue.Clients.ClientService] - Added broker: [BrokerName=Broker2,GroupName=BrokerGroup2,ClusterName=DefaultCluster,BrokerRole=0,ProducerAddress=192.168.1.67:7000,ConsumerAddress=192.168.1.67:7001,AdminAddress=192.168.1.67:7002]
2020-01-04 14:57:17.349 [INF] [EQueue.Clients.ClientService] - ClientService startted.
2020-01-04 14:57:17.350 [INF] [EQueue.Clients.Producers.Producer] - Producer startted.
2020-01-04 15:00:50.994 [INF] [ECommon.Socketing.TcpConnection] - TCP connection closed, name: CommandService, remoteEndPoint: 192.168.1.67:9493, socketError: "ConnectionReset", reason: Socket send error., ex: null
2020-01-04 15:00:50.994 [INF] [ECommon.Socketing.TcpConnection] - TCP connection closed, name: CommandService, remoteEndPoint: 192.168.1.67:7002, socketError: "ConnectionReset", reason: Socket receive error, ex: null
2020-01-04 15:00:50.994 [INF] [ECommon.Socketing.TcpConnection] - TCP connection closed, name: CommandService, remoteEndPoint: 192.168.1.67:7000, socketError: "ConnectionReset", reason: Socket send error., ex: null
2020-01-04 15:00:52.005 [INF] [ECommon.Remoting.SocketRemotingClient] - Try to reconnect to server, name: CommandService, serverAddress: 192.168.1.67:7000
2020-01-04 15:00:52.005 [INF] [ECommon.Remoting.SocketRemotingClient] - Try to reconnect to server, name: CommandService, serverAddress: 192.168.1.67:7002
2020-01-04 15:00:52.005 [INF] [ECommon.Remoting.SocketRemotingClient] - Try to reconnect to server, name: CommandService, serverAddress: 192.168.1.67:9493
2020-01-04 15:00:53.014 [ERR] [ECommon.Socketing.ClientSocket] - Client socket connect failed, name: CommandService, remotingServerEndPoint: 192.168.1.67:7000, socketError: "ConnectionRefused"
2020-01-04 15:00:53.014 [ERR] [ECommon.Socketing.ClientSocket] - Client socket connect failed, name: CommandService, remotingServerEndPoint: 192.168.1.67:9493, socketError: "ConnectionRefused"
2020-01-04 15:00:53.014 [ERR] [ECommon.Socketing.ClientSocket] - Client socket connect failed, name: CommandService, remotingServerEndPoint: 192.168.1.67:7002, socketError: "ConnectionRefused"
2020-01-04 15:00:53.015 [ERR] [ECommon.Remoting.SocketRemotingClient] - Reconnect to server has exception, name: CommandService, serverAddress: 192.168.1.67:7000
System.Exception: Client socket connect failed or timeout, name: CommandService, serverEndPoint: 192.168.1.67:7000
   at ECommon.Socketing.ClientSocket.Start(Int32 waitMilliseconds)
   at ECommon.Remoting.SocketRemotingClient.ReconnectServer()
2020-01-04 15:00:53.015 [ERR] [ECommon.Remoting.SocketRemotingClient] - Reconnect to server has exception, name: CommandService, serverAddress: 192.168.1.67:7002
System.Exception: Client socket connect failed or timeout, name: CommandService, serverEndPoint: 192.168.1.67:7002
   at ECommon.Socketing.ClientSocket.Start(Int32 waitMilliseconds)
   at ECommon.Remoting.SocketRemotingClient.ReconnectServer()
2020-01-04 15:00:53.015 [ERR] [ECommon.Remoting.SocketRemotingClient] - Reconnect to server has exception, name: CommandService, serverAddress: 192.168.1.67:9493
System.Exception: Client socket connect failed or timeout, name: CommandService, serverEndPoint: 192.168.1.67:9493
   at ECommon.Socketing.ClientSocket.Start(Int32 waitMilliseconds)
   at ECommon.Remoting.SocketRemotingClient.ReconnectServer()
2020-01-04 15:00:54.017 [INF] [ECommon.Remoting.SocketRemotingClient] - Try to reconnect to server, name: CommandService, serverAddress: 192.168.1.67:7000
2020-01-04 15:00:54.017 [INF] [ECommon.Remoting.SocketRemotingClient] - Try to reconnect to server, name: CommandService, serverAddress: 192.168.1.67:7002
2020-01-04 15:00:54.017 [INF] [ECommon.Remoting.SocketRemotingClient] - Try to reconnect to server, name: CommandService, serverAddress: 192.168.1.67:9493
2020-01-04 15:00:55.019 [ERR] [ECommon.Socketing.ClientSocket] - Client socket connect failed, name: CommandService, remotingServerEndPoint: 192.168.1.67:7002, socketError: "ConnectionRefused"
2020-01-04 15:00:55.020 [ERR] [ECommon.Remoting.SocketRemotingClient] - Reconnect to server has exception, name: CommandService, serverAddress: 192.168.1.67:7002
System.Exception: Client socket connect failed or timeout, name: CommandService, serverEndPoint: 192.168.1.67:7002
   at ECommon.Socketing.ClientSocket.Start(Int32 waitMilliseconds)
   at ECommon.Remoting.SocketRemotingClient.ReconnectServer()
2020-01-04 15:00:55.020 [ERR] [ECommon.Socketing.ClientSocket] - Client socket connect failed, name: CommandService, remotingServerEndPoint: 192.168.1.67:9493, socketError: "ConnectionRefused"
2020-01-04 15:00:55.020 [ERR] [ECommon.Socketing.ClientSocket] - Client socket connect failed, name: CommandService, remotingServerEndPoint: 192.168.1.67:7000, socketError: "ConnectionRefused"
2020-01-04 15:00:55.020 [ERR] [ECommon.Remoting.SocketRemotingClient] - Reconnect to server has exception, name: CommandService, serverAddress: 192.168.1.67:9493
System.Exception: Client socket connect failed or timeout, name: CommandService, serverEndPoint: 192.168.1.67:9493
   at ECommon.Socketing.ClientSocket.Start(Int32 waitMilliseconds)
   at ECommon.Remoting.SocketRemotingClient.ReconnectServer()
2020-01-04 15:00:55.020 [ERR] [ECommon.Remoting.SocketRemotingClient] - Reconnect to server has exception, name: CommandService, serverAddress: 192.168.1.67:7000
System.Exception: Client socket connect failed or timeout, name: CommandService, serverEndPoint: 192.168.1.67:7000
   at ECommon.Socketing.ClientSocket.Start(Int32 waitMilliseconds)
   at ECommon.Remoting.SocketRemotingClient.ReconnectServer()
2020-01-04 15:06:19.803 [INF] [ECommon.Socketing.ServerSocket] - Socket server is starting, name: CommandResultProcessor.RemotingServer, listening on listeningEndPoint: 192.168.1.67:9000.
2020-01-04 15:06:19.895 [INF] [ECommon.Socketing.ClientSocket] - Client socket connected, name: CommandService, remotingServerEndPoint: 192.168.1.67:9493, localEndPoint: 192.168.1.67:51560
2020-01-04 15:06:20.168 [INF] [ECommon.Socketing.ClientSocket] - Client socket connected, name: CommandService, remotingServerEndPoint: 192.168.1.67:7000, localEndPoint: 192.168.1.67:51561
2020-01-04 15:06:20.171 [INF] [ECommon.Socketing.ClientSocket] - Client socket connected, name: CommandService, remotingServerEndPoint: 192.168.1.67:7002, localEndPoint: 192.168.1.67:51562
2020-01-04 15:06:20.171 [INF] [EQueue.Clients.ClientService] - Added broker: [BrokerName=Broker2,GroupName=BrokerGroup2,ClusterName=DefaultCluster,BrokerRole=0,ProducerAddress=192.168.1.67:7000,ConsumerAddress=192.168.1.67:7001,AdminAddress=192.168.1.67:7002]
2020-01-04 15:06:20.175 [INF] [EQueue.Clients.ClientService] - ClientService startted.
2020-01-04 15:06:20.175 [INF] [EQueue.Clients.Producers.Producer] - Producer startted.
2020-01-04 15:06:20.554 [INF] [ECommon.Socketing.ServerSocket] - Socket server new client accepted, name: CommandResultProcessor.RemotingServer, listeningEndPoint: 192.168.1.67:9000, remoteEndPoint: 192.168.1.67:51563
2020-01-04 15:08:09.156 [INF] [ECommon.Socketing.ServerSocket] - Socket server new client accepted, name: CommandResultProcessor.RemotingServer, listeningEndPoint: 192.168.1.67:9000, remoteEndPoint: 192.168.1.67:51577
2020-01-04 15:48:04.566 [INF] [ECommon.Socketing.TcpConnection] - TCP connection closed, name: CommandResultProcessor.RemotingServer, remoteEndPoint: 192.168.1.67:51577, socketError: "ConnectionReset", reason: Socket receive error, ex: null
2020-01-04 15:48:04.566 [INF] [ECommon.Socketing.TcpConnection] - TCP connection closed, name: CommandResultProcessor.RemotingServer, remoteEndPoint: 192.168.1.67:51563, socketError: "ConnectionReset", reason: Socket receive error, ex: null
2020-01-04 15:48:05.593 [INF] [ECommon.Socketing.TcpConnection] - TCP connection closed, name: CommandService, remoteEndPoint: 192.168.1.67:7002, socketError: "ConnectionReset", reason: Socket receive error, ex: null
2020-01-04 15:48:05.593 [INF] [ECommon.Socketing.TcpConnection] - TCP connection closed, name: CommandService, remoteEndPoint: 192.168.1.67:7000, socketError: "ConnectionReset", reason: Socket receive error, ex: null
2020-01-04 15:48:06.597 [INF] [ECommon.Remoting.SocketRemotingClient] - Try to reconnect to server, name: CommandService, serverAddress: 192.168.1.67:7000
2020-01-04 15:48:06.597 [INF] [ECommon.Remoting.SocketRemotingClient] - Try to reconnect to server, name: CommandService, serverAddress: 192.168.1.67:7002
2020-01-04 15:48:07.606 [ERR] [ECommon.Socketing.ClientSocket] - Client socket connect failed, name: CommandService, remotingServerEndPoint: 192.168.1.67:7002, socketError: "ConnectionRefused"
2020-01-04 15:48:07.606 [ERR] [ECommon.Socketing.ClientSocket] - Client socket connect failed, name: CommandService, remotingServerEndPoint: 192.168.1.67:7000, socketError: "ConnectionRefused"
2020-01-04 15:48:07.607 [ERR] [ECommon.Remoting.SocketRemotingClient] - Reconnect to server has exception, name: CommandService, serverAddress: 192.168.1.67:7000
System.Exception: Client socket connect failed or timeout, name: CommandService, serverEndPoint: 192.168.1.67:7000
   at ECommon.Socketing.ClientSocket.Start(Int32 waitMilliseconds)
   at ECommon.Remoting.SocketRemotingClient.ReconnectServer()
2020-01-04 15:48:07.607 [ERR] [ECommon.Remoting.SocketRemotingClient] - Reconnect to server has exception, name: CommandService, serverAddress: 192.168.1.67:7002
System.Exception: Client socket connect failed or timeout, name: CommandService, serverEndPoint: 192.168.1.67:7002
   at ECommon.Socketing.ClientSocket.Start(Int32 waitMilliseconds)
   at ECommon.Remoting.SocketRemotingClient.ReconnectServer()
2020-01-04 17:10:51.983 [INF] [ECommon.Socketing.ServerSocket] - Socket server is starting, name: CommandResultProcessor.RemotingServer, listening on listeningEndPoint: 192.168.1.67:9000.
2020-01-04 17:10:52.083 [INF] [ECommon.Socketing.ClientSocket] - Client socket connected, name: CommandService, remotingServerEndPoint: 192.168.1.67:9493, localEndPoint: 192.168.1.67:52630
2020-01-04 17:10:52.309 [INF] [ECommon.Socketing.ClientSocket] - Client socket connected, name: CommandService, remotingServerEndPoint: 192.168.1.67:7000, localEndPoint: 192.168.1.67:52631
2020-01-04 17:10:52.314 [INF] [ECommon.Socketing.ClientSocket] - Client socket connected, name: CommandService, remotingServerEndPoint: 192.168.1.67:7002, localEndPoint: 192.168.1.67:52632
2020-01-04 17:10:52.315 [INF] [EQueue.Clients.ClientService] - Added broker: [BrokerName=Broker2,GroupName=BrokerGroup2,ClusterName=DefaultCluster,BrokerRole=0,ProducerAddress=192.168.1.67:7000,ConsumerAddress=192.168.1.67:7001,AdminAddress=192.168.1.67:7002]
2020-01-04 17:10:52.318 [INF] [EQueue.Clients.ClientService] - ClientService startted.
2020-01-04 17:10:52.318 [INF] [EQueue.Clients.Producers.Producer] - Producer startted.
2020-01-04 17:11:55.100 [INF] [ECommon.Socketing.ServerSocket] - Socket server new client accepted, name: CommandResultProcessor.RemotingServer, listeningEndPoint: 192.168.1.67:9000, remoteEndPoint: 192.168.1.67:52658
2020-01-04 17:12:50.309 [INF] [ECommon.Socketing.TcpConnection] - TCP connection closed, name: CommandService, remoteEndPoint: 192.168.1.67:7000, socketError: "Success", reason: Socket normal close., ex: null
2020-01-04 17:12:50.324 [INF] [ECommon.Socketing.TcpConnection] - TCP connection closed, name: CommandService, remoteEndPoint: 192.168.1.67:7002, socketError: "Success", reason: Socket normal close., ex: null
2020-01-04 17:12:50.324 [INF] [EQueue.Clients.ClientService] - Removed broker: [BrokerName=Broker2,GroupName=BrokerGroup2,ClusterName=DefaultCluster,BrokerRole=0,ProducerAddress=192.168.1.67:7000,ConsumerAddress=192.168.1.67:7001,AdminAddress=192.168.1.67:7002]
2020-01-04 17:12:53.924 [INF] [ECommon.Socketing.ClientSocket] - Client socket connected, name: CommandService, remotingServerEndPoint: 192.168.1.67:7000, localEndPoint: 192.168.1.67:52669
2020-01-04 17:12:53.924 [INF] [ECommon.Socketing.ClientSocket] - Client socket connected, name: CommandService, remotingServerEndPoint: 192.168.1.67:7002, localEndPoint: 192.168.1.67:52670
2020-01-04 17:12:53.924 [INF] [EQueue.Clients.ClientService] - Added broker: [BrokerName=Broker2,GroupName=BrokerGroup2,ClusterName=DefaultCluster,BrokerRole=0,ProducerAddress=192.168.1.67:7000,ConsumerAddress=192.168.1.67:7001,AdminAddress=192.168.1.67:7002]
2020-01-04 17:14:27.859 [INF] [ECommon.Socketing.TcpConnection] - TCP connection closed, name: CommandResultProcessor.RemotingServer, remoteEndPoint: 192.168.1.67:52658, socketError: "ConnectionReset", reason: Socket receive error, ex: null
2020-01-04 17:14:27.913 [INF] [ECommon.Socketing.TcpConnection] - TCP connection closed, name: CommandService, remoteEndPoint: 192.168.1.67:7000, socketError: "Success", reason: Socket normal close, ex: null
2020-01-04 17:14:33.592 [INF] [ECommon.Socketing.TcpConnection] - TCP connection closed, name: CommandService, remoteEndPoint: 192.168.1.67:9493, socketError: "ConnectionReset", reason: Socket receive error, ex: null
2020-01-04 17:14:34.602 [INF] [ECommon.Remoting.SocketRemotingClient] - Try to reconnect to server, name: CommandService, serverAddress: 192.168.1.67:9493
2020-01-04 17:14:35.631 [ERR] [ECommon.Socketing.ClientSocket] - Client socket connect failed, name: CommandService, remotingServerEndPoint: 192.168.1.67:9493, socketError: "ConnectionRefused"
2020-01-04 17:14:35.634 [ERR] [ECommon.Remoting.SocketRemotingClient] - Reconnect to server has exception, name: CommandService, serverAddress: 192.168.1.67:9493
System.Exception: Client socket connect failed or timeout, name: CommandService, serverEndPoint: 192.168.1.67:9493
   at ECommon.Socketing.ClientSocket.Start(Int32 waitMilliseconds)
   at ECommon.Remoting.SocketRemotingClient.ReconnectServer()
2020-01-04 17:14:36.643 [INF] [ECommon.Remoting.SocketRemotingClient] - Try to reconnect to server, name: CommandService, serverAddress: 192.168.1.67:9493
2020-01-04 17:14:37.151 [INF] [ECommon.Socketing.TcpConnection] - TCP connection closed, name: CommandService, remoteEndPoint: 192.168.1.67:7002, socketError: "ConnectionReset", reason: Socket receive error, ex: null
2020-01-04 17:14:37.646 [ERR] [ECommon.Socketing.ClientSocket] - Client socket connect failed, name: CommandService, remotingServerEndPoint: 192.168.1.67:9493, socketError: "ConnectionRefused"
2020-01-04 17:14:37.646 [ERR] [ECommon.Remoting.SocketRemotingClient] - Reconnect to server has exception, name: CommandService, serverAddress: 192.168.1.67:9493
System.Exception: Client socket connect failed or timeout, name: CommandService, serverEndPoint: 192.168.1.67:9493
   at ECommon.Socketing.ClientSocket.Start(Int32 waitMilliseconds)
   at ECommon.Remoting.SocketRemotingClient.ReconnectServer()
2020-01-04 17:45:47.509 [INF] [ECommon.Socketing.ServerSocket] - Socket server is starting, name: CommandResultProcessor.RemotingServer, listening on listeningEndPoint: 192.168.1.67:9000.
2020-01-04 17:45:47.595 [INF] [ECommon.Socketing.ClientSocket] - Client socket connected, name: CommandService, remotingServerEndPoint: 192.168.1.67:9493, localEndPoint: 192.168.1.67:52888
2020-01-04 17:45:47.866 [INF] [ECommon.Socketing.ClientSocket] - Client socket connected, name: CommandService, remotingServerEndPoint: 192.168.1.67:7000, localEndPoint: 192.168.1.67:52889
2020-01-04 17:45:47.871 [INF] [ECommon.Socketing.ClientSocket] - Client socket connected, name: CommandService, remotingServerEndPoint: 192.168.1.67:7002, localEndPoint: 192.168.1.67:52890
2020-01-04 17:45:47.872 [INF] [EQueue.Clients.ClientService] - Added broker: [BrokerName=Broker2,GroupName=BrokerGroup2,ClusterName=DefaultCluster,BrokerRole=0,ProducerAddress=192.168.1.67:7000,ConsumerAddress=192.168.1.67:7001,AdminAddress=192.168.1.67:7002]
2020-01-04 17:45:47.876 [INF] [EQueue.Clients.ClientService] - ClientService startted.
2020-01-04 17:45:47.876 [INF] [EQueue.Clients.Producers.Producer] - Producer startted.
2020-01-04 17:52:09.062 [INF] [ECommon.Socketing.ServerSocket] - Socket server new client accepted, name: CommandResultProcessor.RemotingServer, listeningEndPoint: 192.168.1.67:9000, remoteEndPoint: 192.168.1.67:52935
2020-01-04 17:57:01.713 [INF] [ECommon.Socketing.ServerSocket] - Socket server is starting, name: CommandResultProcessor.RemotingServer, listening on listeningEndPoint: 192.168.1.67:9000.
2020-01-04 17:57:01.799 [INF] [ECommon.Socketing.ClientSocket] - Client socket connected, name: CommandService, remotingServerEndPoint: 192.168.1.67:9493, localEndPoint: 192.168.1.67:52992
2020-01-04 17:57:02.031 [INF] [ECommon.Socketing.ClientSocket] - Client socket connected, name: CommandService, remotingServerEndPoint: 192.168.1.67:7000, localEndPoint: 192.168.1.67:52993
2020-01-04 17:57:02.031 [INF] [ECommon.Socketing.ClientSocket] - Client socket connected, name: CommandService, remotingServerEndPoint: 192.168.1.67:7002, localEndPoint: 192.168.1.67:52994
2020-01-04 17:57:02.032 [INF] [EQueue.Clients.ClientService] - Added broker: [BrokerName=Broker1,GroupName=BrokerGroup1,ClusterName=DefaultCluster,BrokerRole=0,ProducerAddress=192.168.1.67:7000,ConsumerAddress=192.168.1.67:7001,AdminAddress=192.168.1.67:7002]
2020-01-04 17:57:02.035 [INF] [EQueue.Clients.ClientService] - ClientService startted.
2020-01-04 17:57:02.035 [INF] [EQueue.Clients.Producers.Producer] - Producer startted.
2020-01-04 17:58:48.420 [INF] [ECommon.Socketing.ServerSocket] - Socket server new client accepted, name: CommandResultProcessor.RemotingServer, listeningEndPoint: 192.168.1.67:9000, remoteEndPoint: 192.168.1.67:53008
